[gd_scene load_steps=4 format=2]

[ext_resource path="res://Assets/Tiles/win.png" type="Texture" id=1]
[ext_resource path="res://Assets/Fonts/Alienfont.tres" type="DynamicFont" id=2]
[ext_resource path="res://Scripts/win.gd" type="Script" id=3]

[node name="Control" type="Control"]
margin_right = 40.0
margin_bottom = 40.0

[node name="Sprite" type="Sprite" parent="."]
position = Vector2( 512.345, 298.957 )
scale = Vector2( 0.873774, 0.873774 )
texture = ExtResource( 1 )

[node name="win" type="LinkButton" parent="."]
margin_left = 422.055
margin_top = 369.298
margin_right = 621.055
margin_bottom = 401.298
custom_fonts/font = ExtResource( 2 )
custom_colors/font_color = Color( 0.529412, 0.521569, 0.521569, 1 )
text = "Main Menu"
script = ExtResource( 3 )
[connection signal="pressed" from="win" to="win" method="_on_LinkButton_pressed"]
